R-Vogg-Blog: Useful packages for data simulation
…
Introduction can be found here. It is very easy to create data with all types of variables.

r_data_frame(
    n = 500,
    id,
    age,
    iq,
    height,
    died,
    animal,
    internet_browser,
    political
)

# A tibble: 500 x 8
   ID      Age    IQ Height Died  Animal            Browser Political 
   <chr> <int> <dbl>  <dbl> <lgl> <fct>             <fct>   <fct>     
 1 001      69    91     69 TRUE  Chinchilla        Chrome  Democrat  
 2 002      49    87     69 FALSE Galapagos Penguin Chrome  Republican
 3 003      60   112     64 FALSE Birds Of Paradise Firefox Republican
 4 004      43    97     69 TRUE  Sea Squirt        IE      Democrat  
 5 005      32    92     75 TRUE  Galapagos Penguin Chrome  Republican
 6 006      42    99     70 FALSE Ocelot            Chrome  Republican
 7 007      87    91     70 FALSE Poison Dart Frog  Chrome  Republican
 8 008      23    91     67 TRUE  Drever            Firefox Democrat  
 9 009      54    94     67 FALSE Pointer           Safari  Democrat  
10 010      86    96     69 TRUE  Sea Squirt        Chrome  Democrat  
# ... with 490 more rows
…
Additionally, you can access the distribution functions easily and tweak parameters of the predefined functions.

test <- r_data_frame(
    n = 500,
    id,
    age(x=18:50),
    `Reading(mins)` = rpois(lambda=20),
    income(digits=0)
)

# A tibble: 500 x 4
   ID      Age `Reading(mins)` Income
   <chr> <int>           <int>  <dbl>
 1 001      39              22  49775
 2 002      19              25  19148
 3 003      19              20  32714
 4 004      41              19  11000
 5 005      35              21  64802
 6 006      29              20  36548
 7 007      43              21  62348
 8 008      35              18  24371
 9 009      50              18 135653
10 010      48              23  51157
# ... with 490 more rows

Looks too perfect? Include random missing values in columns 2 and 4: (Note: If you create a larger dataframe, you can use the %>% operator to structure your code better).

test <- r_na(test, cols=c(2,4),prob=0.3)

# A tibble: 500 x 4
   ID      Age `Reading(mins)` Income
   <chr> <int>           <int>  <dbl>
 1 001      39              22     NA
 2 002      19              25     NA
 3 003      19              20     NA
 4 004      41              19  11000
 5 005      NA              21  64802
 6 006      29              20  36548
 7 007      43              21     NA
 8 008      35              18     NA
 9 009      50              18     NA
10 010      NA              23  51157
# ... with 490 more rows
…
Let see how we can use this in a simulated dataframe.

tibble(
  first_name=corpora("humans/firstNames")$firstNames %>% sample(100,replace=TRUE),
  last_name=corpora("humans/lastNames")$lastNames %>% sample(100,replace=TRUE),
  self_description=corpora("humans/descriptions")$descriptions %>% sample(100,replace=TRUE),
  home_country=corpora("geography/countries")$countries %>% sample(100,replace=TRUE),
  favorite_pizza_topping=corpora("foods/pizzaToppings")$pizzaToppings %>% sample(100,replace=TRUE)
)

# A tibble: 100 x 5
   first_name last_name self_description home_country favorite_pizza_~
   <chr>      <chr>     <chr>            <chr>        <chr>           
 1 Jacob      Peterson  lean             Peru         sausage         
 2 Ruby       Roberts   immature         Nicaragua    Canadian bacon  
 3 Carson     Gonzales  quick            Haiti        bacon           
 4 Shane      Stewart   one-sided        Nauru        ground beef     
 5 Molly      Rice      civil            Iraq         breakfast bacon 
 6 Stephanie  Chavez    ambitious        Monaco       green peppers   
 7 Kaden      Gutierrez picky            Egypt        Canadian bacon  
 8 Valerie    Foster    irritating       Malta        spinach         
 9 Genesis    Owens     talented         Tuvalu       green peppers   
10 Amy        Wood      unfriendly       Vatican Cit~ hot sauce       
# ... with 90 more rows
…
